[
  {
    "id": 225,
    "date": "2021-03-03T16:39:26",
    "date_gmt": "2021-03-03T14:39:26",
    "guid": {
      "rendered": "https:\/\/it2benefit.home.blog\/?p=225"
    },
    "modified": "2021-03-10T14:54:05",
    "modified_gmt": "2021-03-10T12:54:05",
    "slug": "regisseren-van-jouw-digitale-transitie",
    "status": "publish",
    "type": "post",
    "link": "https:\/\/it2benefit.home.blog\/2021\/03\/03\/regisseren-van-jouw-digitale-transitie\/",
    "title": {
      "rendered": "Ben jij in&nbsp;control?"
    },
    "content": {
      "rendered": "\n<figure class=\"wp-block-image size-large\"><img data-attachment-id=\"231\" data-permalink=\"https:\/\/it2benefit.home.blog\/2021\/03\/03\/regisseren-van-jouw-digitale-transitie\/in-control-2\/\" data-orig-file=\"https:\/\/it2benefithome.files.wordpress.com\/2021\/03\/in-control-2-e1615380569866.jpg\" data-orig-size=\"5396,3941\" data-comments-opened=\"1\" data-image-meta=\"{&quot;aperture&quot;:&quot;0&quot;,&quot;credit&quot;:&quot;&quot;,&quot;camera&quot;:&quot;&quot;,&quot;caption&quot;:&quot;&quot;,&quot;created_timestamp&quot;:&quot;0&quot;,&quot;copyright&quot;:&quot;&quot;,&quot;focal_length&quot;:&quot;0&quot;,&quot;iso&quot;:&quot;0&quot;,&quot;shutter_speed&quot;:&quot;0&quot;,&quot;title&quot;:&quot;&quot;,&quot;orientation&quot;:&quot;0&quot;}\" data-image-title=\"In control 2\" data-image-description=\"\" data-medium-file=\"https:\/\/it2benefithome.files.wordpress.com\/2021\/03\/in-control-2-e1615380569866.jpg?w=300\" data-large-file=\"https:\/\/it2benefithome.files.wordpress.com\/2021\/03\/in-control-2-e1615380569866.jpg?w=640\" src=\"https:\/\/it2benefithome.files.wordpress.com\/2021\/03\/in-control-2-e1615380569866.jpg?w=1024\" alt=\"\" class=\"wp-image-231\" srcset=\"https:\/\/it2benefithome.files.wordpress.com\/2021\/03\/in-control-2-e1615380569866.jpg?w=1024 1024w, https:\/\/it2benefithome.files.wordpress.com\/2021\/03\/in-control-2-e1615380569866.jpg?w=2048 2048w, https:\/\/it2benefithome.files.wordpress.com\/2021\/03\/in-control-2-e1615380569866.jpg?w=150 150w, https:\/\/it2benefithome.files.wordpress.com\/2021\/03\/in-control-2-e1615380569866.jpg?w=300 300w, https:\/\/it2benefithome.files.wordpress.com\/2021\/03\/in-control-2-e1615380569866.jpg?w=768 768w\" sizes=\"(max-width: 1024px) 100vw, 1024px\" \/><\/figure>\n\n\n\n<p class=\"has-text-align-center has-large-font-size\" style=\"line-height:1.4;\">Regisseren van een Digitale Transitie<\/p>\n\n\n\n<p><\/p>\n\n\n\n<p>Tegenwoordig neemt iedere organisatie meerdere diensten af uit \u2018de Cloud\u2019. Sommige organisaties hebben dat erg goed geregeld. Maar dat is lang niet altijd het geval.<\/p>\n\n\n\n<p>Veel organisatie worstelen juist met de organisatie van hun digitalisering. &nbsp;Een effici\u00ebnte inzet van nieuwe IT-voorzieningen uit &#8216;de cloud&#8217; is pas mogelijk wanneer u weet welke voordelen dit u brengt, hoe u de &nbsp;volledige controle hierover behoudt \u00e9n uw organisatie in staat is de bijbehorende veranderingen te adopteren. Dit noemen we het digitaal adoptievermogen.<\/p>\n\n\n\n<p><strong><em>Hoe staat het met uw Digitaal Adoptievermogen<\/em><\/strong><strong>?<\/strong> Heeft u de volledige controle? Weet u de nieuwe technologie\u00ebn naadloos binnen uw organisatie opnemen? Is uw organisatie flexibel genoeg om snel innovatieve ontwikkelingen effectief te integreren?<\/p>\n\n\n\n<p>Vanuit onze jarenlange ervaring bij verschillende bedrijven helpen wij organisaties in het vinden van de juiste organisatievorm om deze transitie goed te managen. Wij als team zijn overtuigd dat een effici\u00ebnte inzet van nieuwe IT-voorzieningen uit de cloud eigenlijk alleen mogelijk is wanneer u van tevoren weet welke voordelen dit u brengt en u daar dan ook de volledige controle over heeft.<\/p>\n\n\n\n<p>Wij willen graag meedenken en u deze controle laten ervaren. Ons programma is er daarom op gericht om u in control te brengen zodat u de transitie zelfstandig kunt managen volledig in lijn met uw primaire bedrijfsstrategie. Daarmee zorgen we ervoor dat u uw ICT en cloud omgeving effici\u00ebnt is ingericht, de gebruikerstevredenheid toeneemt en daarnaast ook een duidelijke besparing op ICT wordt behaald.<\/p>\n\n\n\n<p><strong><em>Wij dagen u uit &nbsp;om de hieronder gelinkte, vrijblijvende en kosteloze online scan uit te voeren<\/em><\/strong>. Deze scan bestaat uit 42 vragen, verdeeld over 5 deelgebieden: Bedrijfscultuur; IT-Business Alignment; I&amp;A Organisatie; Architecture Governance &amp; Strategie, en Security &amp; Budgettering. U krijgt een rapport, wat op basis van uw antwoorden een duidelijk overzicht geeft waar uw uitdagingen zitten, wat al goed geregeld is, en al een paar eerste idee\u00ebn om dit mogelijk op te lossen.<\/p>\n\n\n\n<p>De uitslag van de scan zal u een eerste inschatting geven op welke gebieden er, naar onze mening, aandacht nodig is. U kunt dit dan zelf gebruiken, of met ons verder uitvinden waar u het best gebaat bij bent. Aan u, daarna de keuze deze trajecten zelf op te starten, of verder door te zetten met onze assistentie.&nbsp;<\/p>\n\n\n\n<p>Deze scan is ontwikkeld uit een samenwerkingsverband van Transitieprofs, IT2Benefit en BMLD. Juist door het samenbrengen van onze verschillende expertise gebieden kunnen we u een helder beeld schetsen waar uw organisatie staat, waar de aandachtspunten liggen en wat de quick-wins zijn naar een effici\u00ebntere en effectievere inzet van ICT-middelen, met oog voor lagere kosten, een hogere gebruikerstevredenheid en vooral blijvende resultaten en borging in uw organisatie.<\/p>\n\n\n\n<div class=\"wp-block-image is-style-default\"><figure class=\"aligncenter size-large is-resized\"><a href=\"https:\/\/www.survio.com\/survey\/d\/cloud-transitie\" target=\"_blank\"><img loading=\"lazy\" data-attachment-id=\"237\" data-permalink=\"https:\/\/it2benefit.home.blog\/online-scan\/\" data-orig-file=\"https:\/\/it2benefithome.files.wordpress.com\/2021\/03\/online-scan.png\" data-orig-size=\"367,89\" data-comments-opened=\"1\" data-image-meta=\"{&quot;aperture&quot;:&quot;0&quot;,&quot;credit&quot;:&quot;&quot;,&quot;camera&quot;:&quot;&quot;,&quot;caption&quot;:&quot;&quot;,&quot;created_timestamp&quot;:&quot;0&quot;,&quot;copyright&quot;:&quot;&quot;,&quot;focal_length&quot;:&quot;0&quot;,&quot;iso&quot;:&quot;0&quot;,&quot;shutter_speed&quot;:&quot;0&quot;,&quot;title&quot;:&quot;&quot;,&quot;orientation&quot;:&quot;0&quot;}\" data-image-title=\"online-scan\" data-image-description=\"\" data-medium-file=\"https:\/\/it2benefithome.files.wordpress.com\/2021\/03\/online-scan.png?w=300\" data-large-file=\"https:\/\/it2benefithome.files.wordpress.com\/2021\/03\/online-scan.png?w=367\" src=\"https:\/\/it2benefithome.files.wordpress.com\/2021\/03\/online-scan.png?w=367\" alt=\"\" class=\"wp-image-237\" width=\"214\" height=\"52\" srcset=\"https:\/\/it2benefithome.files.wordpress.com\/2021\/03\/online-scan.png?w=214 214w, https:\/\/it2benefithome.files.wordpress.com\/2021\/03\/online-scan.png?w=150 150w, https:\/\/it2benefithome.files.wordpress.com\/2021\/03\/online-scan.png?w=300 300w, https:\/\/it2benefithome.files.wordpress.com\/2021\/03\/online-scan.png 367w\" sizes=\"(max-width: 214px) 100vw, 214px\" \/><\/a><\/figure><\/div>\n\n\n\n<p><\/p>\n\n\n\n<p><\/p>\n\n\n\n<p><\/p>\n",
      "protected": false
    },
    "excerpt": {
      "rendered": "<p>Regisseren van een Digitale Transitie Tegenwoordig neemt iedere organisatie meerdere diensten af uit \u2018de Cloud\u2019. Sommige organisaties hebben dat erg goed geregeld. Maar dat is lang niet altijd het geval. Veel organisatie worstelen juist met de organisatie van hun digitalisering. &nbsp;Een effici\u00ebnte inzet van nieuwe IT-voorzieningen uit &#8216;de cloud&#8217; is pas mogelijk wanneer u weet &hellip; <\/p>\n<p class=\"link-more\"><a href=\"https:\/\/it2benefit.home.blog\/2021\/03\/03\/regisseren-van-jouw-digitale-transitie\/\" class=\"more-link\">Continue reading<span class=\"screen-reader-text\"> &#8220;Ben jij in&nbsp;control?&#8221;<\/span><\/a><\/p>\n",
      "protected": false
    },
    "author": 157266889,
    "featured_media": 231,
    "comment_status": "open",
    "ping_status": "open",
    "sticky": false,
    "template": "",
    "format": "standard",
    "meta": {
      "advanced_seo_description": "",
      "_coblocks_attr": "",
      "_coblocks_dimensions": "",
      "_coblocks_responsive_height": "",
      "_coblocks_accordion_ie_support": "",
      "amp_status": "",
      "spay_email": "",
      "jetpack_anchor_podcast": "",
      "jetpack_anchor_episode": "",
      "jetpack_anchor_spotify_show": "",
      "jetpack_publicize_message": "",
      "jetpack_is_tweetstorm": false
    },
    "categories": [
      1
    ],
    "tags": [],
    "jetpack-related-posts": [
      {
        "id": 192,
        "url": "https:\/\/it2benefit.home.blog\/2020\/09\/15\/inrichten-van-een-regie-organisatie\/",
        "url_meta": {
          "origin": 225,
          "position": 0
        },
        "title": "Inrichten van een regie organisatie",
        "date": "September 15, 2020",
        "format": false,
        "excerpt": "Pragmatisch beginnen Tegenwoordig neemt iedere organisatie meerdere diensten af uit \u2018de Cloud\u2019. Bij veel ICT-afdelingen echter ontbreekt de juiste organisatievorm en\/of expertise om dat goed te managen. De behoefte en het belang daartoe wordt steeds groter. Maar waar moet je je op richten? Waar begin je mee? Welke functies zullen\u2026",
        "rel": "",
        "context": "",
        "img": {
          "alt_text": "",
          "src": "https:\/\/it2benefithome.files.wordpress.com\/2020\/09\/control-en-focux.jpg?w=350&h=200&crop=1",
          "width": 350,
          "height": 200
        },
        "classes": []
      },
      {
        "id": 82,
        "url": "https:\/\/it2benefit.home.blog\/2019\/06\/20\/strategisch-veranderen\/",
        "url_meta": {
          "origin": 225,
          "position": 1
        },
        "title": "Strategisch veranderen",
        "date": "June 20, 2019",
        "format": false,
        "excerpt": "Sinds 2011 heb ik talloze implementaties en IT-adviezen op het gebied van IT-infrastructuur begeleid. Het aantal projecten dat niet goed is afgerond of voortijdig gestopt, is op 1 hand te tellen. Dat lijkt een mooi resultaat waarvoor ik overigens met name de consultants moet bedanken, maar terugkijkend vraag ik mij\u2026",
        "rel": "",
        "context": "In \"Programmamanagement\"",
        "img": {
          "alt_text": "",
          "src":"https:\/\/it2benefithome.files.wordpress.com\/2019\/06\/dmitrii-vaccinium-22833-unsplash-e1554396511434-1184x666.jpg?w 